<?xml version="1.0" encoding="utf-8"?>
<!-- Generator: Adobe Illustrator 24.3.0, SVG Export Plug-In . SVG Version: 6.00 Build 0)  -->
<svg version="1.1" id="Layer_1" xmlns="http://www.w3.org/2000/svg" xmlns:xlink="http://www.w3.org/1999/xlink" x="0px" y="0px"
	 viewBox="0 0 1920 1080" style="enable-background:new 0 0 1920 1080;" xml:space="preserve">
<style type="text/css">
	.st0{font-family:'FranklinGothic-Medium';}
	.st1{font-size:16.4338px;}
	.st2{font-size:12px;}
	.st3{letter-spacing:33;}
	.st4{font-size:12.7124px;}
	.st5{font-size:8.7512px;}
	.st6{font-size:9.5871px;}
</style>
<font horiz-adv-x="2048">
<!-- ITC Franklin Gothic is a trademark of The International Typeface Corporation which may be registered in certain jurisdictions. -->
<!-- Copyright: Copyright 2020 Adobe System Incorporated. All rights reserved. -->
<font-face font-family="FranklinGothic-Medium" units-per-em="2048" underline-position="-154" underline-thickness="102"/>
<missing-glyph horiz-adv-x="2048" d="M256,0l0,1536l1536,0l0,-1536M384,128l1280,0l0,1280l-1280,0z"/>
<glyph unicode=" " horiz-adv-x="512"/>
<glyph unicode="A" horiz-adv-x="1235" d="M1221,0l-263,0l-109,325l-525,0l-107,-325l-210,0l453,1365l303,0M783,522l-199,609l-199,-609z"/>
<glyph unicode="B" horiz-adv-x="1244" d="M150,0l0,1365l532,0C772,1365 847,1356 906,1337C965,1318 1017,1279 1060,1220C1103,1161 1125,1091 1125,1011C1125,936 1103,870 1059,815C1015,759 954,723 877,708C973,691 1046,652 1095,591C1144,530 1169,457 1169,373C1169,268 1135,179 1066,108C997,36 890,0 747,0M383,792l300,0C744,792 793,810 829,847C864,884 882,930 882,987C882,1050 862,1096 821,1126C780,1155 733,1170 678,1170l-295,0M383,205l318,0C768,205 822,223 861,258C900,293 919,341 919,401C919,458 899,505 860,542C820,579 767,597 702,597l-319,0z"/>
<glyph unicode="C" horiz-adv-x="1186" d="M913,474l228,-25C1126,312 1074,200 983,112C892,23 772,-21 624,-21C499,-21 398,10 321,73C243,136 183,221 141,328C99,435 78,554 78,683C78,891 127,1060 226,1191C325,1321 460,1386 633,1386C768,1386 881,1344 971,1261C1061,1178 1118,1058 1141,903l-228,-24C871,1085 778,1188 635,1188C543,1188 472,1145 421,1060C370,974 344,850 344,687C344,522 371,397 426,313C481,228 553,186 643,186C715,186 776,214 827,271C878,328 906,395 913,474z"/>
<glyph unicode="D" horiz-adv-x="1341" d="M143,0l0,1365l503,0C832,1365 981,1299 1094,1168C1207,1036 1263,873 1263,680C1263,487 1205,325 1089,195C973,65 807,0 591,0M396,201l205,0C711,201 804,242 881,325C958,408 996,531 996,694C996,827 963,940 896,1033C829,1125 740,1171 630,1171l-234,0z"/>
<glyph unicode="E" horiz-adv-x="1099" d="M1037,0l-887,0l0,1365l878,0l0,-203l-632,0l0,-370l508,0l0,-198l-508,0l0,-382l641,0z"/>
<glyph unicode="G" horiz-adv-x="1315" d="M1186,698l0,-698l-109,0l-75,184C923,47 800,-21 633,-21C447,-21 308,50 217,191C125,332 79,496 79,682C79,879 130,1045 233,1182C335,1318 478,1386 662,1386C799,1386 912,1346 1001,1267C1090,1187 1146,1088 1169,969l-214,-38C915,1098 819,1181 668,1181C571,1181 493,1142 432,1063C371,984 340,863 340,700C340,355 448,183 664,183C748,183 818,212 873,270C928,328 955,405 955,500l-282,0l0,198z"/>
<glyph unicode="H" horiz-adv-x="1313" d="M1163,0l-246,0l0,593l-521,0l0,-593l-246,0l0,1365l246,0l0,-561l521,0l0,561l246,0z"/>
<glyph unicode="I" horiz-adv-x="546" d="M396,0l-246,0l0,1365l246,0z"/>
<glyph unicode="K" horiz-adv-x="1257" d="M1223,0l-275,0l-288,695l-264,-350l0,-345l-246,0l0,1365l246,0l0,-717C427,697 450,730 464,749l453,616l249,0l-324,-449z"/>
<glyph unicode="L" horiz-adv-x="1021" d="M990,0l-840,0l0,1365l259,0l0,-1142l581,0z"/>
<glyph unicode="M" horiz-adv-x="1640" d="M1489,0l-251,0l0,1195l-378,-1195l-129,0l-380,1195l0,-1195l-201,0l0,1365l385,0l286,-879l281,879l387,0z"/>
<glyph unicode="N" horiz-adv-x="1331" d="M1181,0l-239,0l-518,872C416,885 403,907 385,937C377,950 365,971 348,1000l0,-1000l-198,0l0,1365l272,0l478,-804C904,554 933,505 987,414l0,951l194,0z"/>
<glyph unicode="O" horiz-adv-x="1318" d="M653,-21C472,-21 331,47 230,183C129,319 78,487 78,687C78,886 132,1052 239,1186C346,1319 488,1386 664,1386C841,1386 982,1319 1085,1186C1188,1052 1239,885 1239,684C1239,473 1186,303 1079,174C972,44 830,-21 653,-21M655,177C744,177 819,214 880,287C941,360 972,493 972,686C972,843 947,966 896,1055C845,1144 767,1188 660,1188C449,1188 344,1018 344,679C344,514 371,390 425,305C478,220 555,177 655,177z"/>
<glyph unicode="R" horiz-adv-x="1316" d="M1214,0l-260,0l-212,561l-346,0l0,-561l-246,0l0,1365l592,0C907,1365 1028,1328 1105,1254C1182,1179 1221,1083 1221,965C1221,790 1139,669 975,603M396,758l306,0C791,758 857,777 900,814C943,851 965,903 965,968C965,1028 944,1077 901,1114C858,1151 799,1169 722,1169l-326,0z"/>
<glyph unicode="S" horiz-adv-x="1170" d="M7,329l239,51C275,245 385,177 576,177C663,177 731,194 778,229C825,264 848,307 848,358C848,395 837,430 816,462C795,493 749,518 679,536l-261,68C329,627 263,654 220,684C177,713 143,755 118,809C92,863 79,921 79,982C79,1104 124,1202 215,1276C306,1349 422,1386 563,1386C680,1386 785,1360 878,1309C970,1258 1029,1185 1054,1091l-234,-58C784,1136 700,1188 568,1188C491,1188 433,1172 393,1140C352,1108 332,1067 332,1018C332,940 395,885 522,854l232,-58C895,761 989,709 1037,640C1085,571 1109,494 1109,411C1109,277 1059,172 958,95C857,18 726,-21 565,-21C430,-21 311,7 210,64C108,121 40,209 7,329z"/>
<glyph unicode="T" horiz-adv-x="990" d="M627,0l-264,0l0,1154l-363,0l0,211l990,0l0,-211l-363,0z"/>
<glyph unicode="U" horiz-adv-x="1218" d="M1087,1365l0,-877C1087,369 1074,278 1047,214C1020,150 969,95 893,49C816,2 723,-21 613,-21C502,-21 410,-1 339,39C267,79 215,134 184,204C153,273 137,362 137,470l0,895l251,0l0,-877C388,368 413,289 464,252C514,214 572,195 639,195C716,195 777,215 823,256C869,296 892,373 892,488l0,877z"/>
<glyph unicode="V" horiz-adv-x="1107" d="M675,0l-250,0l-421,1365l260,0l313,-1046l320,1046l205,0z"/>
<glyph unicode="W" horiz-adv-x="1809" d="M1789,1365l-365,-1365l-258,0l-272,1004l-247,-1004l-253,0l-373,1365l261,0l264,-995l246,995l249,0l272,-995l259,995z"/>
<glyph unicode="X" horiz-adv-x="1160" d="M1149,0l-287,0l-302,538l-320,-538l-229,0l432,711l-371,654l286,0l252,-454l267,454l230,0l-380,-623z"/>
<glyph unicode="Y" horiz-adv-x="1113" d="M699,0l-261,0l0,576l-465,789l298,0l324,-563l310,563l236,0l-442,-789z"/>
</font>

	<image style="overflow:visible;enable-background:new    ;" width="1800" height="2700" xlink:href="21A501B7.png"  transform="matrix(0.24 0 0 0.24 711 229.8789)">
</image>
<text transform="matrix(0.9747 0 0 1 716.3008 359.7017)" class="st0 st1">BRITISH TERRITORY</text>
<text transform="matrix(1 0 0 1 827 539.5137)" class="st0 st2">GREAT SIOUX </text>
<text transform="matrix(1 0 0 1 827 553.9137)" class="st0 st2">RESERVATION</text>
<text transform="matrix(1 0 0 1 791 737)" class="st0 st2">UNCEDED INDIGENOUS </text>
<text transform="matrix(1 0 0 1 791 751.4)" class="st0 st2 st3"> </text>
<text transform="matrix(1 0 0 1 827 751.4)" class="st0 st2">TERRITORY</text>
<text transform="matrix(0.9599 0 0 1 936.8467 378.7026)" class="st0 st4">DAKOTA TERRITORY</text>
<text transform="matrix(0.1075 0.9942 -0.9942 0.1075 1073.407 378.8332)" class="st0 st2">MINNESOTA TERRITORY</text>
<text transform="matrix(1 0 0 1 979 779)" class="st0 st2">NEBRASKA </text>
<text transform="matrix(1 0 0 1 979 793.4)" class="st0 st2 st3"> </text>
<text transform="matrix(1 0 0 1 1015 793.4)" class="st0 st2">TERRITORY</text>
<text transform="matrix(-7.224692e-03 1 -1 -7.224692e-03 1128.7139 692.2278)" class="st0 st2">IOWA TERRITORY</text>
<text transform="matrix(1 0 0 1 728 426)" class="st0 st2">MONTANA TERRITORY</text>
<text transform="matrix(7.224692e-03 -1 1 7.224692e-03 762.0727 736.9766)" class="st0 st2">WYOMING TERRITORY</text>
<text transform="matrix(1.0893 0 0 1 995.3135 691.2959)" class="st0 st5">YANKTON </text>
<text transform="matrix(1.0893 0 0 1 995.3135 701.7959)" class="st0 st5">    RESERVATION</text>
<text transform="matrix(1.0446 0 0 1 995.1875 528.0093)" class="st0 st6">LAKE TRAVERSE </text>
<text transform="matrix(1.0446 0 0 1 995.1875 539.5093)" class="st0 st6">     RESERVATION</text>
</svg>
